<?xml version="1.0" encoding="utf-8"?>
<!-- Generator: Adobe Illustrator 19.2.1, SVG Export Plug-In . SVG Version: 6.00 Build 0)  -->
<svg version="1.1" id="Layer_1" xmlns="http://www.w3.org/2000/svg" xmlns:xlink="http://www.w3.org/1999/xlink" x="0px" y="0px"
	 viewBox="0 0 52 52" style="enable-background:new 0 0 52 52;" xml:space="preserve">
<style type="text/css">
	.st0{fill:#DF3A3E;}
	.st1{fill:#FFFFFF;}
</style>
<g>
	<g>
		<g>
			<path class="st0" d="M49,51H3c-1.1,0-2-0.9-2-2V3c0-1.1,0.9-2,2-2h46c1.1,0,2,0.9,2,2v46C51,50.1,50.1,51,49,51z"/>
			<g>
				<path class="st1" d="M21,10.1C14.2,12.2,9.2,18.5,9.2,26c0,7.5,5,13.8,11.8,15.9L21,10.1z"/>
				<path class="st1" d="M25.8,9.4c-0.4,0-0.8,0-1.2,0v1.7c0.2,0,0.5,0,0.7,0c5.7,0,10.3,4.6,10.3,10.3c0,5.7-4.6,10.3-10.2,10.3
					l0,10.8c0.1,0,0.2,0,0.3,0c9.2,0,16.6-7.4,16.6-16.6C42.4,16.9,35,9.4,25.8,9.4z"/>
			</g>
		</g>
	</g>
</g>
</svg>
