<?xml version="1.0" encoding="utf-8"?>
<!-- Generator: Adobe Illustrator 19.2.1, SVG Export Plug-In . SVG Version: 6.00 Build 0)  -->
<svg version="1.1" id="Layer_1" xmlns="http://www.w3.org/2000/svg" xmlns:xlink="http://www.w3.org/1999/xlink" x="0px" y="0px"
	 viewBox="0 0 24 22" style="enable-background:new 0 0 24 22;" xml:space="preserve">
<style type="text/css">
	.st0{fill:#7BCCC5;}
</style>
<g>
	<path class="st0" d="M22.5,0.4L23,1.2c-3.2,2.3-6.2,5.1-8.9,8.6c-2.7,3.5-4.7,6.8-5.9,10.2l-0.7,0.5c-0.6,0.4-1.2,0.8-1.6,1.2
		c-0.1-0.4-0.3-1-0.6-1.9l-0.4-0.9c-0.8-2-1.5-3.4-2.1-4.2S1.7,13.3,1,13.3c0.9-0.8,1.7-1.2,2.3-1.2c0.9,0,1.9,1.2,3,3.6L6.9,17
		c1.9-3.5,4.3-6.6,7-9.5S19.5,2.2,22.5,0.4z"/>
</g>
</svg>
