<?xml version="1.0" encoding="utf-8"?>
<!-- Generator: Adobe Illustrator 19.2.1, SVG Export Plug-In . SVG Version: 6.00 Build 0)  -->
<svg version="1.1" id="Layer_1" xmlns="http://www.w3.org/2000/svg" xmlns:xlink="http://www.w3.org/1999/xlink" x="0px" y="0px"
	 viewBox="0 0 160 160" style="enable-background:new 0 0 160 160;" xml:space="preserve">
<style type="text/css">
	.st0{fill:#FFFFFF;}
	.st1{fill-rule:evenodd;clip-rule:evenodd;fill:#E9E5DF;}
	.st2{fill:#E9E5DF;}
	.st3{fill-rule:evenodd;clip-rule:evenodd;fill:#F16261;}
	.st4{fill:#F16261;}
</style>
<circle class="st0" cx="80" cy="80" r="80"/>
<g>
	<g>
		<path class="st1" d="M95.8,106.6c-0.3-0.2-0.6,0-0.8,0.2c-0.3,0.2-0.6,0.5-1,0.2c-0.1,0-0.1,0-0.1,0c-0.2,0.2-0.3,0-0.3-0.1
			c-0.2-0.2,0-0.3,0.1-0.3c1-0.5,1-1.3,1.1-2.2c0-0.2,0-0.3,0.2-0.4c0.2-0.2-0.2-0.4-0.3-0.5c-0.5-0.4-0.5-1.1-0.8-1.6
			c-0.1-0.1-0.1-0.2-0.2-0.3c-0.3,0.7-0.6,1.4-0.7,2.1c-0.1,0.5-0.4,0.9-0.4,1.4c0,0.2-0.2,0.2-0.4,0.1c-0.5-0.3-0.8-0.1-1.3,0.2
			c-0.2,0.1-0.6,0.2-1.1,0.2c0.4-0.4,0.6-0.7,0.6-1.1c0-0.2,0.1-0.3,0.4-0.2c0.3,0.1,0.6,0,0.8,0.1c0.1,0.1,0.2-0.1,0.2-0.2
			c0-0.5,0.2-1,0.1-1.6c0-0.3,0.1-0.8,0.1-1.2c0.2-0.8,0.6-1.3,1.2-1.7c0.2-0.1,0.2-0.4,0.1-0.6c-0.2-0.2-0.1-0.4-0.2-0.7
			c-0.1-0.2,0.1-0.4,0.4-0.4c0.4,0,0.3-0.3,0.2-0.4c-0.3-0.3-0.3-0.6-0.2-0.9c0-0.4-0.4-0.6-0.4-0.9c-0.1,0.2-0.4,0.3-0.1,0.7
			c0.3,0.3,0,0.6-0.4,0.8c-0.4,0.2-0.6,0.6-0.8,1c-0.2,0.5-0.3,1-0.7,1.5c-0.1,0.1-0.2,0.2-0.3,0.2c-1.1,0.2-2,0.9-2.5,1.9
			c-0.1,0.3-0.6,0.4-0.5,0.9c0,0,0,0-0.1,0.1c-0.4,0.2-0.5,0.3-0.6,0.8c0,0,0,0.1,0,0.1c-0.1,0.1-0.3,0.1-0.2,0.2
			c0.1,0.1,0.2,0,0.3-0.1c0,0,0.1,0,0.2,0c-0.1,0.3-0.1,0.5-0.1,0.8c-0.1-0.3-0.3-0.5-0.6-0.6c-0.2,0-0.1,0.3-0.3,0.4
			c-0.2-0.5-0.5-0.8-0.9-1.1c0.2,0,0.4,0,0.7-0.1c-0.6-0.2-0.5-0.7-0.6-1c-0.2-1-0.6-1.9-1.4-2.5c-0.1-0.1-0.1-0.1-0.1-0.3
			c0.1-0.4,0-0.7-0.3-1c-0.2-0.2-0.1-0.7-0.5-0.5c-0.2,0.1-0.5-0.1-0.7,0.1c-0.2,0.2-0.3,0-0.4-0.2c0-0.2-0.4-0.3-0.2-0.6
			c0,0-0.1-0.1-0.1-0.1c-0.1,0.1-0.3,0-0.3-0.1c-0.1-0.2,0.1-0.1,0.1-0.2c0-0.1,0-0.1,0-0.2c0-0.1-0.3-0.2-0.1-0.3
			c0.2-0.1,0.4,0.1,0.3,0.4c0.4-0.6,0.4-0.8,0-1.2c-0.2-0.2-0.5-0.1-1,0.2c-0.1-0.1,0-0.2,0-0.3c0-0.2,0.2-0.1,0.2-0.2
			c0-0.3-0.1-0.5-0.4-0.6c-0.1-0.1-0.2-0.1-0.3-0.3c-0.1-0.3-0.3-0.5-0.5-0.1c-0.1,0.2-0.1,0-0.2,0c-0.1-0.1-0.1-0.1-0.2,0
			c-0.4,0.3-0.7,0.3-1.1,0c-0.4-0.3-0.7-0.7-1.3-0.7c-0.3,0-0.5,0.1-0.7,0.2c-0.3,0.2-0.6,0.3-0.9,0c-0.7-0.7-1.6-1.1-2.5-1.5
			c-0.5-0.3-0.9-0.2-1.3,0.2c-0.1,0.1-0.3,0.1-0.5,0.1c-0.7,0-1.5,0-2.2,0c-0.9,0-1.8,0.2-2.6,0.3c-1.2,0.2-2,1-3,1.5
			c-0.1,0-0.1,0.1-0.3,0.1c-1.1,0.1-2,0.9-3.1,1c-0.7,0.1-1.5,0.2-2.1,0c-0.6-0.2-1.2,0-1.6,0.4c-0.7,0.6-1.5,0.9-2.2,1.5
			c-0.6,0.5-1.3,0.8-2.1,1c-0.4,0.1-0.8,0.6-0.8,1c0,0.9-0.5,1.5-0.9,2.2c-0.1,0.2-0.4,0.5-0.8,0.4c0,0-0.1,0-0.1,0
			c-0.4,0.4-0.7,0.5-1-0.1c-0.4,0.3-0.9,0.1-1.3,0.3c-0.2,0.1-0.4,0.2-0.5,0.2c-0.3,0-0.5-0.1-0.6,0.3c0,0.2-0.2,0.1-0.3,0.1
			c-0.2,0-0.1-0.1-0.1-0.2c-0.1-0.5-0.5-0.6-0.8-0.2c-0.1,0.1-0.1,0.1-0.2,0.1c-0.3-0.2-0.7,0-1-0.2c-0.4-0.1-0.7,0.2-1.1,0.2
			c-0.5,0-1,0.2-1.4,0.3c-0.4,0.2-0.9,0.3-1.3,0.3c-0.6,0-1,0.3-1.4,0.6c-0.3,0.2-0.4,0.6-0.6,0.9c-0.1,0.2,0.1,0.2,0.3,0.3
			c-0.1,0.2-0.9-0.3-0.3,0.4c-0.2,0-0.4-0.3-0.5,0c0,0.2-0.2,0.1-0.3,0.1c-0.7-0.2-0.9-0.1-1.2,0.6c-0.1,0.1-0.2,0.3-0.5,0.3
			c-0.1,0-0.3,0.1-0.3,0.2c-0.1,0.4-0.1,0.7-0.6,0.8c-0.3,0.1-1.2,0.6-1.5,0.7c-0.7,0.3-1.4-0.1-2,0.1c-0.5,0.2-1,0.1-1.5,0.2
			c-0.2,0-0.3,0-0.1-0.2c0.1-0.1-0.1-0.2-0.1-0.2c-0.1,0.1-0.2-0.3-0.3,0c-0.1,0.2-0.2-0.1-0.3-0.1c-0.6,0.2-0.9-0.2-1.3-0.6
			c-0.4-0.4-0.9-0.6-1.4-0.9c-0.3-0.1-0.7-0.2-0.9-0.1c-0.4,0.3-0.4-0.1-0.5-0.3c-0.3-0.8-0.5-1.5-0.3-2.3c0.8,0.5,1.5,0.2,1.7-0.9
			c0.2-1,0.1-1.3-0.3-2.2c0-0.1,0-0.1,0-0.2c0.2-0.1,0.1,0.3,0.4,0.2c0-0.2-0.3-0.4,0-0.6c0.1-0.1-0.1-0.3-0.2-0.5
			c-0.1-0.5-0.2-1-0.2-1.5c0-1-0.7-1.6-1.1-2.4c-0.7-1.2-1.7-2.2-2.1-3.6c-0.2-0.7-0.5-1.4-0.5-2.1c0-0.7-0.3-1.2-0.6-1.8
			c0,0,0-0.1,0-0.1c-0.8-0.4-0.9-1.3-1.4-1.9c-0.2-0.3-0.5-0.8-1-1c-0.5-0.3-0.7-0.8-0.6-1.5c0-0.7-0.4-1.2-0.8-1.7
			c-0.4-0.6-0.9-1.2-1.4-1.7c-0.2-0.3-0.5-0.5-0.8-0.6c-0.6-0.4-0.7-0.7-0.5-1.4c0,0.2,0,0.4,0.1,0.6c0,0.1,0.1,0.1,0.1,0.2
			c0.1-0.2-0.1-0.5,0.2-0.7c0.1,0.2,0.1,0.4,0.3,0.5c0.1,0.2,0,0.4,0.1,0.5c0-0.2-0.1-0.4,0.1-0.5c0.2,0.2,0.2,0.8,0.2,0.8
			c0.5-0.3,0.2,0.4,0.5,0.3c0.3-0.2,0.7-0.4,0.4-1.1c-0.1-0.2-0.2-0.3-0.3-0.3c-0.5-0.1-0.8-0.5-0.9-0.9c-0.1-0.1-0.1-0.3-0.2-0.4
			c-0.3-0.3-0.4-0.5-0.2-0.9c0.3,0.2,0.6,0.5,0.9,0.7c0.3,0.2,0.2,0.6,0.2,0.9c0,0.2-0.1,0.3,0.1,0.4c0.2,0.1,0.3,0,0.3-0.2
			c0,0,0-0.2,0.1-0.1c0.1,0,0.2,0,0.2,0.2c0,0.2,0.1,0.4,0.2,0.6c0.1,0.3,0.3,0.4,0.5,0.3c0.2-0.1,0.5-0.3,0.2-0.7
			c-0.3-0.4,0-0.8-0.1-1.3c0-0.2-0.1-0.2-0.2-0.3c-0.7-0.3-1-0.9-1.3-1.5c-0.2-0.2-0.3-0.5-0.6-0.6c-0.2-0.1-0.2-0.4-0.3-0.6
			c-0.2-0.4-0.3-0.9-0.7-1.1C14,72.5,14,72,14,71.6c0-0.7,0-1.4,0.3-2c0.1-0.1,0.1-0.3,0.2-0.3c0.4-0.3,0.4-0.7,0.3-1.1
			c-0.1-0.3-0.2-0.5,0-0.9c0.2-0.3-0.1-0.7-0.3-0.9c-0.4-0.3-0.5-0.5-0.3-1c0.2-0.7,0.3-1.4,0.5-2.2c0.1-0.3,0.2-0.5,0.5-0.6
			c0.1,0.6-0.2,1.1,0.1,1.7c0.1,0.2,0.2,0.4,0.1,0.6c0,0.1,0,0.3,0.1,0.3c0.1,0,0.2-0.1,0.2-0.2c0,0,0,0,0,0c0.9,0,0.5-0.9,0.8-1.3
			c0.2-0.3,0.2-0.6,0.3-1c0.2-0.4,0.6-0.7,0.9-0.9c0.7-0.4,1.4-0.8,2-1.4c0.5-0.6,0.7-1.4,1.5-1.7c0.2-0.1,0.4-0.5,0.7-0.7
			c0.7-0.3,1-0.5,1.3-1.1c0.1,0.6,0.2,0.6,0.7,0.3c0.3-0.2,0.5-0.3,0.8,0c0.2,0.2,0.5,0.2,0.8,0c0.3-0.2,0.6-0.2,0.9-0.3
			c0.4-0.2,0.7-0.6,0.9-0.9c0.2-0.4,0.6-0.4,0.9-0.5c0.3-0.1,0.6-0.1,0.8-0.2c0.7-0.1,1-0.5,1.3-1.1c0.1-0.3,0.4-0.5,0.8-0.4
			c0.3,0.1,0.7-0.2,1,0.2c0.1,0.1,0.2,0,0.3-0.1c0.4-0.6,1.2-0.5,1.8-0.7c1.1-0.4,2.2-0.9,3-1.7c0.9-0.8,1.5-1.8,1.6-3
			c0.4-0.2,0.3-1,0.5-1c0.5-0.1,0.6-0.4,0.9-0.7c0.2-0.2,0.4-0.5,0.7-0.6c0.3-0.1,0.2-0.5-0.1-0.6c-0.3-0.1-0.4-0.3-0.4-0.6
			c0-0.4-0.2-0.7-0.3-1c-0.1-0.8,0.1-1.4,0.7-2c0.1-0.1,0.1-0.1,0.2-0.1c0.2,0,0.3-0.2,0.3-0.4c0-0.1,0-0.4,0.3-0.2
			c0.1-0.2,0.7,0,0.4-0.5c0-0.1,0-0.3,0.1-0.4c0.2-0.1,0.4-0.2,0.3-0.5c0-0.2,0.1-0.1,0.2-0.2c0.1-0.1,0.2,0.1,0.2,0.1
			c0.1,0.2-0.1,0.1-0.2,0.1c-0.2,0.3,0.1,0.5,0.3,0.8c0.1,0.2,0.4,0.4,0.4,0.7c0,0.2,0.4,0.3,0.5,0.6c0.3,0.5,0.7,1,1,1.5
			c0.1,0.1,0.1,0.1,0.3,0.2c-0.3-0.5-0.2-1,0-1.4c0,0,0-0.1,0-0.1c-0.3-0.1-0.2-0.3-0.1-0.5c0,0,0.3,0.1,0.4,0.2
			c0.1,0.2,0.2,0.3,0.4,0.1c-0.3-0.4-0.1-0.7,0.2-1c0.1-0.1,0.1-0.2,0.1-0.3c-0.1-0.1-0.1,0.1-0.2,0.1c-0.2,0.3-0.4,0.3-0.6,0
			c-0.1-0.1-0.1-0.3-0.3-0.3c-0.3-0.1-0.3-0.7-0.1-0.9c0.3-0.2,0.3-0.4-0.1-0.5c-0.1-0.1-0.3-0.1-0.2-0.3c0.1-0.1,0.1-0.3,0.4-0.3
			c0.2,0.1,0.3,0.1,0.2,0.4c0,0.2,0.1,0.2,0.3,0.2c0.3,0,0.1,0.1,0,0.2c-0.1,0.1,0,0.2,0.1,0.2c0.1,0.1,0.1-0.1,0.2-0.1
			c0.2-0.1,0.2-0.3,0.2-0.5c0.1-0.2,0.3-0.2,0.5,0c0.3,0.3,0.5,0.7,1,0.2c0.5,0.2,0.9,0,1.4,0l0,0c-0.3-0.3-0.6-0.2-0.9-0.2
			c-0.5,0-0.6,0-0.5-0.5c0-0.1,0.1-0.2,0.1-0.3c0.2,0,0.1,0.3,0.3,0.2c0.1-0.1,0.2-0.2,0.2-0.4c0-0.2-0.1-0.6,0.3-0.7
			c0,0,0.2-0.2,0.1-0.3c-0.1-0.1-0.3-0.1-0.4,0c-0.1,0.1-0.1,0.4-0.3,0.5c-0.1-0.1-0.1-0.2-0.2-0.3c-0.2-0.3-0.3-1-0.1-1.3
			c0.1-0.1,0.1-0.1,0.3,0c0.3,0.2,0.4-0.1,0.4-0.3c0.1-0.3,0.2-0.5,0.4-0.5c0.3,0,0.6,0.1,0.7,0.5c0,0.1,0.1,0.2,0.3,0.1
			c0,0,0.4,0,0.2-0.2c-0.1-0.1-0.1-0.1-0.1-0.2c0.1-0.3,0.1-0.4-0.3-0.2c-0.1,0-0.3,0.1-0.3,0c0-0.2-0.4-0.3-0.2-0.6
			c0-0.1,0.1-0.2,0.2-0.1c0.1,0,0.2,0,0.2,0c0.3-0.6,0.4,0,0.6,0.1c0.1-0.1,0-0.3,0-0.4c0.3,0.1,0.4,0.5,0.8,0.3
			c0.2-0.1,0.1,0,0.1-0.2c-0.1-0.5-0.5-0.7-0.8-1c-0.2-0.1-0.3-0.3,0-0.4c0.1,0,0.1-0.1,0.1-0.1c0.2-0.3,0.2-0.3,0.6-0.2
			c0,0,0,0,0,0c0.2,0-0.1-0.5,0.4-0.3c0.4,0.1,0.2-0.4,0.2-0.5c0-0.2-0.1-0.3,0-0.6c0.3,0.5,0.1,1,0.1,1.5c0.2-0.2,0.2-0.2,0.2-0.6
			c0.3,0,0.4,0.2,0.5,0.4c0,0.1,0.1,0.3,0.3,0.3c0.3,0-0.1-0.2,0.1-0.3c0.6-0.1,0.3-0.6,0.4-0.9c0.1-0.3,0.4-0.6,0.4-1l0,0
			c0.2,0,0,0.3,0.2,0.3c0.1,0,0.1,0.3,0.3,0.1c0.1-0.1,0.3-0.1,0.2-0.3c-0.1-0.2,0.2-0.3,0.2-0.5c0.1,0,0.2,0,0.2,0
			c-0.2,0.5,0.4,0.4,0.5,0.8c-0.2-0.4,0.8-0.4,0.4-0.9c0.2-0.1,1,0.1,0.2-0.5c0,0-0.2-0.3,0.1-0.2c0,0,0.1,0,0.1,0
			c0.4-0.3,0.4-0.3,0.7,0.1c0.1,0.2,0.2,0.5,0.6,0.2c0.3-0.2,0.7,0,0.8,0.3c0,0.1,0,0.2,0.1,0.2c0.5,0,0.8,0.4,1.1,0.8
			c0.4,0.5,0.8,1,1.4,1.2c0.3,0.1,0.2,0.3,0.2,0.4c-0.3,0.7-0.3,1.4-0.3,2.1c0,0.2-0.1,0.3-0.1,0.6c0.4-0.3,0.3-0.7,0.3-1.1
			c0.3,0.2,0.5,0.5,0.5,0.8c0.3-0.4-0.2-0.6-0.3-0.9c-0.1-0.4,0.2-0.6,0.3-0.9c0.2,0.1-0.1,0.6,0.4,0.4c0.2-0.1,0.2-0.1,0.1-0.3l0,0
			c0.1-0.2-0.1-0.4,0.1-0.6c0.1-0.1,0.2-0.1,0.4-0.1c0.5,0.2,1.1,0.1,1.6,0.3c0.5,0.2,0.7,0.5,0.5,1c0,0.1-0.1,0.2,0,0.3
			c0.1,0,0.2-0.1,0.2-0.2c0-0.3,0-0.6,0-0.9c0-0.1-0.1-0.2,0-0.3c0.1,0.3,0.3,0,0.5,0.1c0.3,0.2,0.6,0.4,0.8,0.7
			c0.3,0.4,0.3,0.4,0.8,0.4c-0.4-0.1-0.6-0.4-0.7-0.7c0-0.2,0-0.6,0.4-0.5c0.3,0.1,0.5-0.2,0.8-0.2c0.1,0,0.1-0.1,0.1-0.2
			c-0.1-0.1-0.1,0-0.2,0c-0.2,0-0.4,0.1-0.6,0.1c-0.4,0.1-0.4-0.2-0.5-0.4c-0.2-0.3,0.2-0.1,0.2-0.2c0.1-0.1,0.1-0.2,0.3-0.4
			c-0.8,0.5-1.1-0.2-1.5-0.4c-0.1-0.1,0.1-0.5,0.2-0.8c0.2-0.3,0.4-0.7,0.9-0.7c0,0,0.1-0.1,0.1-0.1c-0.1-0.4,0.2-0.6,0.2-0.9
			c0-0.4,0.2-0.7,0.3-1.1c0.1,0.4,0.3,0.4,0.6,0.2c0.3-0.2,0.6-0.5,0.9-0.8c-0.4-0.3-0.8-0.6-0.7-1.2c0-0.2,0-0.2,0.2-0.1
			c0.2,0.1,0.6-0.2,0.6-0.5c0.1-0.7,0.1-0.7,0.7-0.4c0.2,0.1,0.3,0,0.5,0c-0.4-0.1-0.4-0.5-0.4-0.8c0-0.1-0.1-0.3,0.1-0.4
			c0.2,0,0.4,0.1,0.5,0.2c0,0.2,0.2,0.3,0.3,0.5c0.1,0.1,0,0.3,0.3,0.2c0,0,0.2,0.1,0.1,0c-0.1-0.2,0.1-0.4-0.1-0.5
			c-0.1-0.1-0.3-0.1-0.3-0.3c0-0.3,0.3-0.2,0.4-0.2c0.4-0.1,0.2-0.3,0.2-0.5c-0.1-0.2,0-0.2,0.2-0.2c0.2,0.1,0.4,0.1,0.7,0.2
			c0.1-0.1-0.1-0.4,0.2-0.5c-0.1,0.6,0.3,0.7,0.8,0.7c0.4,0,0.8,0.1,1.2-0.1c0.1,0,0.1,0,0.1,0c0.5,0.3,0.8,0.2,1.1-0.2
			c0.2-0.2,0.3,0.1,0.6,0.1c0.1,0,0.2,0.2,0,0.5c0.3-0.2,0.3-0.2,0.2-0.4c-0.1-0.4,0.2-0.7,0.6-0.6c0.2,0.1,0.4,0.1,0.6,0
			c-0.4-0.1-0.7-0.3-0.4-0.7c0.1-0.1,0.1-0.4-0.1-0.5c-0.1,0-0.1-0.1-0.1-0.2c0.2-0.1,0.4-0.3,0.2-0.4c-0.5-0.4-0.8-1-1.6-0.7
			c-0.2,0.1-0.3,0.2-0.5,0.2c-0.3,0,0-0.5-0.4-0.4c0-0.3-0.3-0.3-0.5-0.4c-0.2,0-0.1-0.2-0.1-0.2c0-0.2,0.2-0.1,0.2-0.1
			c0.3,0.3,0.4-0.1,0.5-0.2c0.3,0.2,0.2,0.5,0.4,0.7c0.1,0.1,0.1,0.3,0.2,0.1c0,0,0.2-0.2,0-0.3c-0.2-0.1-0.1-0.3-0.1-0.4
			c0.2,0,0.1,0.2,0.3,0.3c0.3-0.1,0.3-0.1,0.3,0.1c0.6-0.6,0.5,0.3,0.8,0.3c0.1,0,0.1,0.2,0.2,0.3c0.1,0.2,0.3,0.3,0.5,0
			c0.1-0.2,0.5-0.1,0.5-0.4c0,0,0.1-0.1,0.2,0c0.1,0.2,0.3,0.3,0.4,0.5c0.2,0.9,0.9,0.9,1.6,1.1c0.6,0.2,1-0.2,1.6-0.2
			c-0.1,0.2-0.4,0.2-0.3,0.4c0.1,0.2,0.3,0.2,0.4,0.2c0.8,0,0.8,0,0.9,0.6c0.2-0.3,0.3-0.3,0.7-0.2c0.3,0.1,0.8,0.3,1.1-0.2
			c0.1,0.1,0.2-0.2,0.3,0c0.1,0.3,0.2,0.6,0.7,0.6c0,0,0,0,0,0c0.2,0.4,0.6,0.5,1,0.5c-0.1-0.2,0.3-0.7,0.6-0.7c0.3,0,0.8,0.2,1-0.3
			l0,0c0.2-0.1,0.3,0,0.5-0.1c0,0.2-0.2,0.3-0.3,0.4c-0.3,0.1-0.3,0.3-0.1,0.5c0.1,0.3,0.2,0.3,0.4,0c0.2-0.2,0.3-0.5,0.6-0.1
			c0.1,0.2,0.3,0.3,0.2,0.5c-0.1,0.2,0.1,0.3,0.3,0.3c0.6,0.1,0.8,0,1.1-0.9c-0.1-0.2-0.5,0.1-0.5-0.2c0-0.2,0.2-0.4,0.4-0.5
			c0.5-0.3,0.5-0.3,0.7,0.3c0.1,0.4,0.5,0.5,0.8,0.4c0.2-0.1,0.3,0.1,0.4,0.2c0.2,0.1,0.2,0.4,0,0.4c-0.2,0.1-0.2,0.5-0.5,0.2
			c-0.1-0.1-0.2,0-0.2,0.2c0,0.3-0.2,0.6-0.5,0.8c-0.1,0-0.1,0.1,0,0.2c0.1,0.1,0.2,0.2,0,0.2c-0.1,0-0.1-0.1-0.1-0.2
			c0-0.1-0.1-0.1-0.2-0.1c-0.1,0.1-0.2,0.2-0.1,0.3c0.1,0.1,0.2,0.2,0.3,0.3c-0.1,0.1-0.5,0.2-0.1,0.5c0.1,0.1,0.2,0.3-0.1,0.3
			c-0.2,0-0.1,0.4-0.4,0.3c-0.2-0.1-0.1-0.3,0-0.4c0-0.1,0.1-0.1,0-0.2c-0.1,0-0.1,0-0.2,0c0,0.3-0.5,0.3-0.5,0.7c0,0-0.1,0-0.1,0
			c-0.1-0.1-0.1-0.2,0-0.2c0.1-0.1,0-0.2-0.1-0.2c-0.1,0-0.2,0.1-0.2,0.2c0,0.2,0,0.3-0.3,0.1c-0.3-0.1-0.5,0.5-0.2,0.8
			c-0.1,0.1-0.3-0.1-0.4,0.1c-0.1,0.4,0,0.7,0.2,1c0.1,0.2,0.3-0.1,0.4-0.1c0,0.6-0.6,1-0.5,1.6c0,0.2-0.3,0.1-0.4,0.2
			c-0.2,0.3-0.5,0.7-0.8,1c-0.2,0.3-0.3,0.6-0.6,0.8c-0.3,0.2-0.1,0.5,0.1,0.8c0.2,0.2,0.4,0.4,0.6,0.5c0.7,0.3,1.2,0.9,1.9,1.2
			c0,0,0.1,0,0.1,0.1c0.2,0.8,1,1,1.5,1.5c0.1,0.1,0.4,0.2,0.2,0.5c0,0.1,0.1,0.2,0.1,0.1c0.2-0.3,0.5,0,0.8-0.1
			c0.3-0.1,0.7,0.2,1,0.4c0.3,0.3,0.7,0.5,1.2,0.7c0.3,0.1,0.6,0.3,0.8,0.6c0.6,0.8,1.3,1.6,2.2,1.6c0.6,0,1,0.4,1.6,0.4
			c0.4,0,0.7,0.4,0.7,0.9c0.1,0.4,0.1,0.9,0.7,0.9c0.2,0,0.4,0.3,0.6,0.5c0.2,0.2,0.3,0.4,0.6,0.3c0.2,0,0.4,0.1,0.5,0.2
			c0.4,0.8,1.1,0.4,1.6,0.3c0.5-0.1,1-0.3,1.4-0.6c0.5-0.3,0.6-0.8,0.7-1.2c0.1-0.3,0.2-0.6,0.4-0.9c0.5-0.6,0.9-1.3,1.1-2.1
			c0.3-0.8,0.2-1.7,0.5-2.4c0.2-0.6,0.5-1.2,0.8-1.8c0.1-0.2,0.1-0.3,0-0.5c-0.4-0.9-0.5-1.8,0-2.6c0.2-0.3,0-0.5-0.2-0.7
			c-0.4-0.5-0.3-1,0-1.5c0.2-0.4,0.3-0.8,0.6-1.1c0.1-0.1,0-0.3,0-0.4c0-0.4-0.5-0.9,0.3-1.2c0.1,0,0.2-0.2,0.2-0.3
			c0-0.2,0.1-0.3,0.3-0.3c0.1,0,0.2,0.2,0.2,0.3c0,0.1-0.1,0.3,0.1,0.3c0.2,0,0.1-0.2,0-0.3c0,0,0-0.1,0-0.1
			c0.1-0.2,0.1-0.2-0.1-0.3c-0.1,0-0.1-0.1-0.1-0.1c0-0.2,0.3-0.1,0.4-0.3c-0.7,0.3-0.7-0.4-1-0.6c-0.1-0.1,0-0.5,0.2-0.5
			c0.3-0.1,0.3-0.3,0.3-0.4c0-0.3,0.2-0.4,0.4-0.8c-0.1,0.5,0.1,0.6,0.5,0.5c-0.6-0.7,0.1-1.2,0.2-1.7c0.2-0.7,0.5-1.4,0.4-2.1
			c0-0.3,0.3-0.3,0.5-0.3c0.3-0.1,0.5-0.1,0.7-0.5c0.1-0.4,0.4-0.1,0.8,0c-0.2,0.2-0.4,0.2-0.5,0.4c-0.1,0.1-0.1,0.2,0,0.3
			c0.1,0.1,0.1,0,0.2-0.1c0-0.1,0.1-0.1,0.2,0c0.1,0.4,0.7,0.6,0.6,1.2c-0.1,0.4,0.1,0.9,0.1,1.4c0,0.2,0,0.4,0,0.7
			c0,0.6,0.2,0.8,0.8,0.7c0.2,0,0.2,0.3,0.4,0.2c0,0-0.2,0.1-0.1,0.2c0.1,0.2-0.2,0.2-0.2,0.3c-0.3,0.6-0.3,0.7,0.3,1
			c0.1,0,0.2,0,0.2,0.1c0.1,0.4,0.2,0.7,0.5,0.9c0.1,0-0.1,0.4-0.2,0.6c0,0.1-0.1,0.3,0.1,0.3c0.6,0,0.3,0.4,0.3,0.6
			c0,0.5-0.2,0.9,0.1,1.4c0.1,0.1,0.1,0.4,0,0.5c-0.3,0.5-0.3,1,0,1.4c0.4,0.5,0.2,1.1,0.4,1.6c0.1,0.3,0.4,0.5,0.7,0.6
			c0.4,0.1,0.6-0.2,0.8-0.4c0.2-0.2,0.2-0.3,0.5-0.2c0.3,0.1,0.6,0,0.8-0.4c0.3,0.3,0.3,0.6,0.2,0.9c0,0.3,0.1,0.5,0.4,0.6
			c0.3,0.1,0.6,0.2,0.7,0.6c0,0.3,0.4,0.5,0.7,0.5c0.2,0,0.2,0.1,0.4,0.2c0.2,0.2,0.2,0.4,0,0.6c0,0-0.1,0.1-0.1,0.1
			c0.2,0.5-0.2,1.1,0,1.7c0.1,0.3,0.3,0.7,0,1c-0.1,0.1,0,0.2,0.1,0.3c0.2,0.2,0.6,0.5,0.1,0.8c0,0,0,0.1,0,0.1
			c0.4,0.3-0.1,0.5,0,0.8c0,0,0,0.1,0,0.1c-0.2-0.2-0.5-0.1-0.4,0.1c0,0.2,0.1,0.4,0,0.6c0.3,0,0.3-0.2,0.3-0.4c0-0.1,0-0.2,0.1-0.2
			c0.1,0,0.2,0,0.2,0.1c0.2,0.6,0.7,0.9,0.8,1.5c0,0.1,0.1,0.2,0.1,0.3c0,0,0.1,0.2,0.1,0.1c0-0.4,0.4-0.2,0.6-0.3
			c-0.5,0.3-0.3,0.6-0.1,1c0.2,0.6,0.4,1.1,0.4,1.7c0,0.4,0,0.9-0.2,1.2c-0.2,0.4-0.4,0.8-0.3,1.2c0,0.1,0,0.1,0.1,0.1
			c0.4,0.1,0.4,0.7,0.8,0.8c0.2,0,0.1,0.2,0,0.3c-0.6,1,0.1,1.8,1.1,2.2c0.2,0.1,0.2,0.2,0.3,0.3c0.3,0.3,0.4,0.4,0.8,0.1
			c0,0.6,0.4,0.7,0.9,0.7c0.5,0,0.8,0.3,0.7,0.9c0,0.3,0.2,0.5,0.3,0.8c0.1,0.1,0.3,0.2,0.4-0.1l0,0c0.3,0.4,0.8,0.4,1.3,0.6
			c0.2,0.1,0.4,0.1,0.2,0.5c-0.1,0.3,0.3,0.4,0.5,0.6c0,0,0.3-0.1,0.3-0.4c0.3,0.3,0.5,0.7,0.9,0.8c0.1,0,0.2,0.2,0.1,0.4
			c-0.1,0.1-0.2,0.2-0.3,0.1c-0.1,0.2-0.3,0.4-0.2,0.6c0.1,0.2,0.1,0.5,0.4,0.6c0,0,0,0,0.1,0c-0.2,0.6,0.5,0.4,0.7,0.8
			c0.1,0.3,0.6,0.4,0.3,0.9c-0.1,0.1,0,0.3,0.1,0.3c0.3,0.3,0.1,0.5,0.1,0.8c0.4,0,0.5,0.3,0.4,0.6c-0.2,0.8,0.2,1.5,0.2,2.3
			c0,0.1,0,0.1,0.1,0.1c0.4,0.1,0.3,0.4,0.1,0.6c0.3,0.2,0.5-0.5,0.8-0.1c0.2,0.2,0.3,0.5,0.4,0.8c0.2-0.3-0.1-0.5,0-0.8
			c0-0.1-0.1-0.2-0.1-0.3c0-0.2,0-0.5,0.3-0.6c0.4-0.2,0.3,0.3,0.3,0.3c0.2,0.7,0.8,0.9,1.2,1.2c0.1,0.1,0.1,0.1,0.2,0.2
			c0.2-0.1,0-0.2,0-0.3c0-0.2-0.2-0.5,0-0.6c0.3-0.1,0.2,0.4,0.5,0.4c0,0,0,0.1,0,0.1c-0.2,0.3-0.2,0.3,0,0.6c0.2,0.3,0,0.6-0.1,0.8
			c-0.1,0.4-0.2,0.8-0.1,1.3c0,0.3,0.1,0.6,0,0.9c-0.1,0-0.2,0-0.3,0c0.1,0,0.2,0,0.4,0c0.1,0.1-0.1,0.4,0.3,0.3
			c0.1,0,0.3,0.2,0.4,0.2c0.1,0,0.1,0.1,0.1,0.1c-0.1,0.3,0.2,0.5,0.4,0.7c0.3,0.3,0.8,0.5,0.8,1.1c0.2-0.2,0.4,0.1,0.6,0
			c0.1,0,0.2-0.1,0.2,0c0,0.5,0.6,0.7,0.6,1.2c-0.1,0.6,0.7,1.4,1.2,1.5c0.2,0.1,0.2,0.3,0.2,0.4c-0.1,0.8,0.2,1.3,1,1.7
			c0.3,0.2,0.2,0.6,0.1,0.8c-0.2,0.4-0.3,0.7,0,1.1c0.2,0.2-0.1,0.4,0,0.6c0.1-0.1,0.2-0.2,0.2-0.3c0.5,0.3,0.1,0.6,0,1
			c-0.3,0.6-0.1,1.3-0.2,2c0,0.4-0.1,0.8,0,1.2c0,0.1,0,0.2-0.1,0.1c-0.7-0.1-0.2,0.5-0.4,0.7c-0.1,0.1,0.2,0.2,0.2,0.4
			c0.1,0.3,0.3,0.6,0.3,1c0,0.4,0.4,0.7,0.1,1.1c0,0,0.1,0.1,0.1,0.2c-0.1,0.4,0.5,0.7,0.3,1.1c-0.1,0.4-0.3,0.7-0.1,1.2
			c0.1,0.3-0.1,0.6-0.3,0.8c-0.6,0.6-0.9,1.4-1.1,2.2c-0.3,1.1-0.8,2.1-1.4,3.1c-0.2,0.4-0.5,1-0.2,1.6c0.1,0.1,0,0.5-0.2,0.7
			c-0.2,0.2-0.3,0.4-0.3,0.6c0.1,0.3-0.2,0.3-0.3,0.5c-0.3,0.6-0.5,1.2-1,1.6c-0.4,0.3-0.5,0.6-0.5,1.1c0,0.7-0.6,0.9-1.1,1.2
			c-0.2,0.1-0.6,0-0.4,0.5c0,0.1-0.1,0.1-0.2,0.1c-0.7,0-1.1,0.5-1.4,1c-0.1,0.2-0.1,0.5-0.5,0.5c0,0-0.2,0.2-0.2,0.3
			c-0.1,0.5-0.1,0.6-0.6,0.5c-0.1,0-0.1,0-0.1,0.1c0,0-0.1,0.1,0,0.2c0.3,0.3,0.2,0.5,0,0.8c-0.1,0.1,0,0.2,0,0.3
			c0,0.1,0.1,0.2-0.1,0.2c-0.2,0-0.5,0-0.3,0.4c0.1,0.1-0.1,0.2-0.2,0.2c-0.4,0.2-0.6,0.5-0.8,1c-0.2,0.5,0,1.1-0.6,1.4
			c0,0-0.1,0.1,0,0.3c0.1,0.1,0.1,0.3-0.2,0.3c0,0,0,0,0,0c-0.2,0.2,0.2,0.5,0,0.5c-0.2,0.1-0.5-0.1-0.6,0.1
			c-0.1,0.2-0.1,0.4-0.3,0.5c-0.2,0.2-0.1,0.4-0.3,0.6c-0.2,0.1-0.1,0.6-0.5,0.5c0,0.2-0.1,0.4-0.2,0.6c-0.1,0.3-0.3,0.6-0.3,0.9
			c0,0.8-0.4,1.5-0.7,2.1c-0.2,0.4,0,0.9-0.4,1.3c0,0,0,0.1,0.1,0.1c0.3,0,0.2,0.3,0.1,0.4c-0.2,0.2-0.1,0.4-0.2,0.6
			c0,0.2,0.1,0.4-0.2,0.5c-0.2,0.1-0.4,0-0.4-0.3c-0.4,0.9-1,1.2-1.8,0.9c-0.1,0-0.2-0.1-0.3-0.1c-0.6,0-1.2,0-1.7-0.1
			c-1.4-0.1-2.6,0.4-3.6,1.4c-0.3,0.3-0.7,0.6-1.1,0.9c-0.5,0.4-1.1,0.3-1.7,0.3c-0.2,0-0.5-0.1-0.6,0.1c-0.1,0.2,0.2,0.4,0.2,0.6
			c0.1,0.2,0.3-0.1,0.5-0.1c0,0.1,0.1,0.2,0,0.4c0,0.1-0.1,0.2-0.1,0.2c0.2,0.1,0.2,0.3,0,0.4c-0.3,0.1-0.1-0.3-0.2-0.4
			c-0.2-0.2-0.1-0.5-0.4-0.7c-0.4-0.2-0.4-0.3-0.6,0.1c-0.2,0-0.1-0.2-0.1-0.3c-0.1-0.3,0-0.9-0.7-0.8c-0.3,0.1-0.3-0.4-0.6-0.4
			c0.1-0.2,0.1-0.4,0.3-0.4c0.2,0,0.1-0.1,0.1-0.2c-0.1-0.2,0-0.5-0.3-0.5c-0.2,0-0.5-0.1-0.5,0.2c-0.1,0.4-0.5,0.4-0.7,0.7
			c-0.2,0.2-0.3,0.1-0.6-0.4c0.6,0.1,0.7-0.4,1-0.7c0.1-0.1,0.1-0.2,0-0.3c-0.1-0.3-0.4-0.4-0.5-0.7c0,0-0.3,0-0.5,0.1
			c-0.4,0.3-0.8,0.6-1.3,0.6c0.2,0.3,0.3,0.5,0.7,0.3c0.1-0.1,0.2-0.2,0.3,0c0.1,0.2-0.1,0.3-0.2,0.4c0,0-0.1,0.1-0.2,0.1
			c-0.9-0.1-1.5,0.6-2.1,1c-0.3,0.3-0.8,0.4-1,0.7c0,0-0.1,0.1-0.1,0c-0.3-0.3-0.7-0.4-1.1-0.6c-0.7-0.4-1.3-0.9-2-1.4
			c-0.1-0.1-0.3-0.1-0.3,0c-0.3,0.4-0.6,0-0.7-0.1c-0.3-0.4-0.7-0.2-1.1-0.3c0,0-0.2,0.1-0.2,0.1c0.1,0.7-0.4,0.1-0.6,0.2
			c-0.1,0.1-0.1,0-0.1-0.1c-0.2-0.8-0.8-1.3-1.6-1.2c-0.6,0-1-0.4-1.2-0.7c-0.3-0.7-0.8-1.3-1.3-1.9c-0.2-0.2-0.5-0.5-0.3-1
			c0-0.1,0-0.4-0.3-0.5c0.5-0.4,0.7-0.8,0.5-1.4c-0.1-0.5-0.3-1-0.5-1.5c-0.2-0.9-0.5-1.2-1.2-1.7c0.3-0.1,0.6-0.3,0.3-0.7
			c0,0-0.1-0.1,0-0.1c0.5-0.2,0.1-0.4,0-0.5c-0.2-0.3-0.3-0.1-0.5,0c-0.1,0.1-0.2,0.1-0.4,0.1c-0.2,0-0.2,0.1-0.2,0.3
			c0,0.1,0.2,0,0.1,0.1C96,106.7,95.8,106.6,95.8,106.6L95.8,106.6z"/>
		<g>
			<path class="st1" d="M113.5,136.5c0-0.9-0.8-1.2-0.9-1.9c-0.1-0.7-0.6-1.3-0.4-2c0.4,0.2,0.5,0.5,0.6,0.9c0.2-0.3,0.4-0.6,0-0.9
				c-0.2-0.2-0.4-0.5-0.4-0.9c0-0.5-0.5-0.9-0.7-1.3c-0.4-0.9-0.6-1.7-0.7-2.6c0-0.4,0.4-0.7,0.2-1.2c0.5,0.3,0.9,0.5,1.4,0.6
				c0.5,0.2,1.2,0.3,1.5,0.9c0,0.1,0.1,0.1,0.1,0.1c0.5,0,0.8,0.4,1.2,0.6c0.4,0.1,0.7,0.1,1-0.1c0.2-0.1,0.4-0.3,0.5,0.1
				c0,0.1,0.1,0.2,0.2,0.1c0.1,0,0.2-0.1,0.1-0.2c0-0.1-0.3-0.1-0.1-0.3c0.1-0.1,0.4-0.2,0.6-0.1c0.2,0.1,0.4,0.1,0.6-0.1
				c0.1-0.1,0.2-0.1,0.2,0c0.3,0.6,0.5,0,0.7-0.1c0.2-0.2,0.2-0.3,0.4-0.1c0.2,0.2,0.5,0.1,0.6-0.1c0.1-0.3,0.2-0.2,0.4-0.1
				c0.5,0.4,0.6,0.9,0.4,1.5c-0.1,0.3,0,0.7-0.1,1c0,0.4-0.1,0.7-0.3,1.1c-0.1,0.2,0.1,0.3,0.1,0.5c0,0.1,0.1,0.4-0.2,0.2
				c-0.1-0.1-0.2,0-0.2,0.1c-0.2,0.5-0.6,0.8-0.6,1.4c0,0.2,0,0.5-0.3,0.5c-0.1,0-0.1,0.1-0.1,0.2c0.2,0.3,0,0.5-0.1,0.8
				c-0.2,0.4-0.5,0.4-0.7,0.1c-0.1-0.1-0.1-0.1-0.2,0c-0.1,0.1-0.2,0.2-0.3,0.4c-0.1-0.2-0.2-0.3-0.3-0.5c0.1,0.7-0.6,1.1-0.4,1.8
				c-0.3-0.1-0.3-0.5-0.5-0.6c0,0,0-0.2-0.1-0.2c-0.1,0-0.2,0.1-0.1,0.2c0.2,0.4,0,0.8-0.2,1.2c0,0.1-0.2,0.2-0.1,0.3
				c0.1,0.2,0,0.2-0.1,0.2c-0.2,0-0.3-0.3-0.5-0.2c-0.1-0.3-0.2-0.5-0.6-0.4c-0.3,0-0.6-0.2-1,0c-0.1,0-0.2,0-0.2,0
				c0.1-0.2-0.1-0.4,0-0.5c0.1-0.1,0.2-0.1,0.3,0c0.1,0.2,0.3,0.2,0.4,0.1c0.1,0,0.1-0.2,0.1-0.3c-0.1,0-0.2-0.1-0.4,0
				c-0.3,0.1-0.4-0.3-0.5-0.5C113.7,136.2,113.7,136.3,113.5,136.5z"/>
			<path class="st1" d="M69,20.9c0-0.3-0.3-0.5-0.5-0.6c-0.4-0.4-0.2-1-0.5-1.4c0.3,0.1,0.6,0.2,0.6,0.7c0,0,0.4,0.1,0.6,0.1
				c0.2-0.1,0.5,0,0.6-0.3c0,0,0.1,0,0.1,0c0.2-0.2,0.2,0.5,0.4,0.1c0.1-0.2,0.3-0.3,0.4-0.4c0.1,0.2,0.1,0.4,0.2,0.5
				c0-0.1,0-0.1,0-0.2c0-0.3-0.1-0.5,0.4-0.3c0.4,0.2,0.4,0.6,0.7,0.7c0,0-0.2,0.1-0.5,0.5c-0.3,0.3-0.5,0.5-0.8,0.8
				c-0.7,0.5-0.7,0.6-1.4,0.1C69.3,21.1,69.2,20.9,69,20.9L69,20.9z"/>
			<path class="st1" d="M91.3,106.8c0.4,0,0.8-0.2,0.5,0.4c-0.1,0.1,0.8,0.4,0.9,0.3c0.2-0.4,0.3,0.1,0.5,0
				c-0.1,0.2,0.3,0.2,0.1,0.3c-0.1,0.1-0.3,0.2-0.5,0.1c-0.1-0.1-0.3,0-0.5-0.1c-0.2,0.2-0.6-0.1-0.6,0.4c0,0.2-0.2,0.4-0.4,0.3
				c-0.6-0.5-1.3-0.1-1.9-0.2c-0.4,0-0.6-0.3-0.7-0.5c-0.1-0.2,0-0.6,0.5-0.6C90,107.2,90.7,107,91.3,106.8z"/>
			<path class="st1" d="M91,28c-0.3,0.4,0.1,0.5,0.3,0.7c0.1,0.1,0.1,0,0.1,0c0-0.1,0.1-0.1,0.1-0.2c0-0.1,0.1-0.2,0.2-0.1
				c0.1,0,0,0.1,0,0.2c-0.1,0.1-0.1,0.3-0.3,0.3c-0.2,0-0.2,0.1-0.2,0.2c0.1,0.2,0,0.3-0.2,0.3c-0.2,0-0.2,0.1-0.2,0.2
				c0,0.1,0.1,0.3,0.2,0.3c0.2-0.2,0.4,0.3,0.7,0c0.1-0.1,0.1,0,0.1,0.1c0,0.2-0.1,0.4-0.2,0.3c-0.3-0.4-0.7-0.1-1-0.2
				C90.3,30,90,30,89.9,29.8c-0.1-0.7,0.1-1.2,0.5-1.3C90.7,28.4,90.6,28,91,28z"/>
			<path class="st1" d="M69,20.9c-0.1,0.6-0.6,0.4-0.7,0.3c-0.3-0.2-0.5-0.1-0.8,0c-0.2,0.1-0.4,0-0.7,0c0.2-0.2,0.3-0.4,0.5-0.4
				c0.2,0,0.1-0.2,0.1-0.3c0.1-0.2-0.1-0.5,0.1-0.8c0.1-0.2,0.3-0.1,0.4-0.2c0.1,0.1,0.2,0.2,0.2,0.3c0,0.4,0.5,0.5,0.3,0.9
				C68.6,20.8,68.8,20.9,69,20.9L69,20.9z"/>
			<path class="st1" d="M142.8,76.2c-0.4-0.2-0.4-1,0-1.3c0.1-0.1,0.2-0.2,0.2-0.2c-0.1-0.5,0.3-0.7,0.6-0.9c0.3-0.2,0.2-0.5,0-0.8
				c-0.1-0.1-0.1-0.2,0-0.3c0.1-0.1,0.2-0.1,0.2-0.1c0.1,0.1,0,0.2,0,0.2c0.1,0.2-0.1,0.4,0.1,0.6c0.1,0.1,0,0.3-0.1,0.5
				c-0.3,0.5-0.5,1-0.9,1.4C142.8,75.7,142.9,76,142.8,76.2z"/>
			<path class="st1" d="M101.3,38.7c-0.2-0.1-0.3,0.2-0.5-0.1c-0.1-0.2-0.4,0.1-0.4,0.2c0,0.4-0.4,0.3-0.5,0.5
				c-0.2,0.2-0.4,0.1-0.5,0c-0.2-0.2,0.1-0.3,0.1-0.4C100,38.3,100.6,38.2,101.3,38.7z"/>
		</g>
		<g>
			<path class="st2" d="M130.6,108.4l-0.2,0.1l-0.1,0.1"/>
		</g>
	</g>
	<g>
		<path class="st3" d="M142.8,76.2c-0.4-0.2-0.4-1,0-1.3c0.1-0.1,0.2-0.2,0.2-0.2c-0.1-0.5,0.3-0.7,0.6-0.9c0.3-0.2,0.2-0.5,0-0.8
			c-0.1-0.1-0.1-0.2,0-0.3c0.1-0.1,0.2-0.1,0.2-0.1c0.1,0.1,0,0.2,0,0.2c0.1,0.2-0.1,0.4,0.1,0.6c0.1,0.1,0,0.3-0.1,0.5
			c-0.3,0.5-0.5,1-0.9,1.4C142.8,75.7,142.9,76,142.8,76.2z"/>
		<path class="st3" d="M101.3,38.7c-0.2-0.1-0.3,0.2-0.5-0.1c-0.1-0.2-0.4,0.1-0.4,0.2c0,0.4-0.4,0.3-0.5,0.5
			c-0.2,0.2-0.4,0.1-0.5,0c-0.2-0.2,0.1-0.3,0.1-0.4C100,38.3,100.6,38.2,101.3,38.7z"/>
	</g>
	<g>
		<path class="st4" d="M94.1,72.6l1.1-34l0,0c0.5,0.5,1,0.8,1.6,0.9c0.6,0,1,0.4,1.6,0.4c0.4,0,0.7,0.4,0.7,0.9
			c0.1,0.4,0.1,0.9,0.7,0.9c0.2,0,0.4,0.3,0.6,0.5c0.2,0.2,0.3,0.4,0.6,0.3c0.2,0,0.4,0.1,0.5,0.2c0.4,0.8,1.1,0.4,1.6,0.3
			c0.5-0.1,1-0.3,1.4-0.6c0.5-0.3,0.6-0.8,0.7-1.2c0.1-0.3,0.2-0.6,0.4-0.9c0.5-0.6,0.9-1.3,1.1-2.1c0.3-0.8,0.2-1.7,0.5-2.4
			c0.2-0.6,0.5-1.2,0.8-1.8c0.1-0.2,0.1-0.3,0-0.5c-0.4-0.9-0.5-1.8,0-2.6c0.2-0.3,0-0.5-0.2-0.7c-0.4-0.5-0.3-1,0-1.5
			c0.2-0.4,0.3-0.8,0.6-1.1c0.1-0.1,0-0.3,0-0.4c0-0.4-0.5-0.9,0.3-1.2c0.1,0,0.2-0.2,0.2-0.3c0-0.2,0.1-0.3,0.3-0.3
			c0.1,0,0.2,0.2,0.2,0.3c0,0.1-0.1,0.3,0.1,0.3c0.2,0,0.1-0.2,0-0.3c0,0,0-0.1,0-0.1c0.1-0.2,0.1-0.2-0.1-0.3
			c-0.1,0-0.1-0.1-0.1-0.1c0-0.2,0.3-0.1,0.4-0.3c-0.7,0.3-0.7-0.4-1-0.6c-0.1-0.1,0-0.5,0.2-0.5c0.3-0.1,0.3-0.3,0.3-0.4
			c0-0.3,0.2-0.4,0.4-0.8c-0.1,0.5,0.1,0.6,0.5,0.5c-0.6-0.7,0.1-1.2,0.2-1.7c0.2-0.7,0.5-1.4,0.4-2.1c0-0.3,0.3-0.3,0.5-0.3
			c0.3-0.1,0.5-0.1,0.7-0.5c0.1-0.4,0.4-0.1,0.8,0c-0.2,0.2-0.4,0.2-0.5,0.4c-0.1,0.1-0.1,0.2,0,0.3c0.1,0.1,0.1,0,0.2-0.1
			c0-0.1,0.1-0.1,0.2,0c0.1,0.4,0.7,0.6,0.6,1.2c-0.1,0.4,0.1,0.9,0.1,1.4c0,0.2,0,0.4,0,0.7c0,0.6,0.2,0.8,0.8,0.7
			c0.2,0,0.2,0.3,0.4,0.2c0,0-0.2,0.1-0.1,0.2c0.1,0.2-0.2,0.2-0.2,0.3c-0.3,0.6-0.3,0.7,0.3,1c0.1,0,0.2,0,0.2,0.1
			c0.1,0.4,0.2,0.7,0.5,0.9c0.1,0-0.1,0.4-0.2,0.6c0,0.1-0.1,0.3,0.1,0.3c0.6,0,0.3,0.4,0.3,0.6c0,0.5-0.2,0.9,0.1,1.4
			c0.1,0.1,0.1,0.4,0,0.5c-0.3,0.5-0.3,1,0,1.4c0.4,0.5,0.2,1.1,0.4,1.6c0.1,0.3,0.4,0.5,0.7,0.6c0.4,0.1,0.6-0.2,0.8-0.4
			c0.2-0.2,0.2-0.3,0.5-0.2c0.3,0.1,0.6,0,0.8-0.4c0.3,0.3,0.3,0.6,0.2,0.9c0,0.3,0.1,0.5,0.4,0.6c0.3,0.1,0.6,0.2,0.7,0.6
			c0,0.3,0.4,0.5,0.7,0.5c0.2,0,0.2,0.1,0.4,0.2c0.2,0.2,0.2,0.4,0,0.6c0,0-0.1,0.1-0.1,0.1c0.2,0.5-0.2,1.1,0,1.7
			c0.1,0.3,0.3,0.7,0,1c-0.1,0.1,0,0.2,0.1,0.3c0.2,0.2,0.6,0.5,0.1,0.8c0,0,0,0.1,0,0.1c0.4,0.3-0.1,0.5,0,0.8c0,0,0,0.1,0,0.1
			c-0.2-0.2-0.5-0.1-0.4,0.1c0,0.2,0.1,0.4,0,0.6c0.3,0,0.3-0.2,0.3-0.4c0-0.1,0-0.2,0.1-0.2c0.1,0,0.2,0,0.2,0.1
			c0.2,0.6,0.7,0.9,0.8,1.5c0,0.1,0.1,0.2,0.1,0.3c0,0,0.1,0.2,0.1,0.1c0-0.4,0.4-0.2,0.6-0.3c-0.5,0.3-0.3,0.6-0.1,1
			c0.2,0.6,0.4,1.1,0.4,1.7c0,0.4,0,0.9-0.2,1.2c-0.2,0.4-0.4,0.8-0.3,1.2c0,0.1,0,0.1,0.1,0.1c0.4,0.1,0.4,0.7,0.8,0.8
			c0.2,0,0.1,0.2,0,0.3c-0.6,1,0.1,1.8,1.1,2.2c0.2,0.1,0.2,0.2,0.3,0.3c0.3,0.3,0.4,0.4,0.8,0.1c0,0.6,0.4,0.7,0.9,0.7
			c0.5,0,0.8,0.3,0.7,0.9c0,0.3,0.2,0.5,0.3,0.8c0.1,0.1,0.3,0.2,0.4-0.1l0,0c0.3,0.4,0.8,0.4,1.3,0.6c0.2,0.1,0.4,0.1,0.2,0.5
			c-0.1,0.3,0.3,0.4,0.5,0.6c0,0,0.3-0.1,0.3-0.4c0.3,0.3,0.5,0.7,0.9,0.8c0.1,0,0.2,0.2,0.1,0.4c-0.1,0.1-0.2,0.2-0.3,0.1
			c-0.1,0.2-0.3,0.4-0.2,0.6c0.1,0.2,0.1,0.5,0.4,0.6c0,0,0,0,0.1,0c-0.2,0.6,0.5,0.4,0.7,0.8c0.1,0.3,0.6,0.4,0.3,0.9
			c-0.1,0.1,0,0.3,0.1,0.3c0.3,0.3,0.1,0.5,0.1,0.8c0.4,0,0.5,0.3,0.4,0.6c-0.2,0.8,0.2,1.5,0.2,2.3c0,0.1,0,0.1,0.1,0.1
			c0.4,0.1,0.3,0.4,0.1,0.6c0.3,0.2,0.5-0.5,0.8-0.1c0.2,0.2,0.3,0.5,0.4,0.8c0.2-0.3-0.1-0.5,0-0.8c0-0.1-0.1-0.2-0.1-0.3
			c0-0.2,0-0.5,0.3-0.6c0.4-0.2,0.3,0.3,0.3,0.3c0.2,0.7,0.8,0.9,1.2,1.2c0.1,0.1,0.1,0.1,0.2,0.2c0.2-0.1,0-0.2,0-0.3
			c0-0.2-0.2-0.5,0-0.6c0.3-0.1,0.2,0.4,0.5,0.4c0,0,0,0.1,0,0.1c-0.2,0.3-0.2,0.3,0,0.6c0.2,0.3,0,0.6-0.1,0.8
			c-0.1,0.4-0.2,0.8-0.1,1.3c0,0.3,0.1,0.6,0,0.9c-0.1,0-0.2,0-0.3,0c0.1,0,0.2,0,0.4,0c0.1,0.1-0.1,0.4,0.3,0.3
			c0.1,0,0.3,0.2,0.4,0.2c0.1,0,0.1,0.1,0.1,0.1c-0.1,0.3,0.2,0.5,0.4,0.7c0.3,0.3,0.8,0.5,0.8,1.1c0.2-0.2,0.4,0.1,0.6,0
			c0.1,0,0.2-0.1,0.2,0c0,0.5,0.6,0.7,0.6,1.2c-0.1,0.6,0.7,1.4,1.2,1.5c0.2,0.1,0.2,0.3,0.2,0.4c-0.1,0.8,0.2,1.3,1,1.7
			c0.3,0.2,0.2,0.6,0.1,0.8c-0.2,0.4-0.3,0.7,0,1.1c0.2,0.2-0.1,0.4,0,0.6c0.1-0.1,0.2-0.2,0.2-0.3c0.5,0.3,0.1,0.6,0,1
			c-0.3,0.6-0.1,1.3-0.2,2c0,0.4-0.1,0.8,0,1.2c0,0.1,0,0.2-0.1,0.1c-0.7-0.1-0.2,0.5-0.4,0.7c-0.1,0.1,0.2,0.2,0.2,0.4
			c0.1,0.3,0.3,0.6,0.3,1c0,0.4,0.4,0.7,0.1,1.1c0,0,0.1,0.1,0.1,0.2c0,0.2,0.1,0.4,0.2,0.6l-0.1,0.1l-0.5,0.3l-0.5,0l-0.3,0.3
			l-0.7-0.2l-0.4,0.1l-0.4-0.3l-0.2,0.1l-0.1-0.2l-0.1-0.1l-0.4,0.3l-0.3,0l-0.2,0.1l-0.2,0l-0.7,0.3l0.1,0.3l0.2,0.3l-0.3,0.7
			l-0.3,0.1l-0.2-0.1L137,87l-0.2-0.1l-0.1-0.2l-0.5,0.2l-0.2,0.4l-0.3,0.3l-0.2,0l-0.1,0l-0.1-0.2l0-0.6l-0.4-0.3l-0.3-0.1l0-0.3
			l-0.7-0.5l-0.5,0l-0.5-0.1l-0.4-0.5l-0.9,0.1l-0.8-0.1l-0.2,0.1l-0.3-0.1l-0.1-0.2l-0.4,0l-0.3,0.3l-0.5,0.2l-0.3,0.2l-0.3,0.1
			l-0.1,0.3l-0.3,0.2l-6.7-0.7l-6.1-0.6l-12.2-0.9l0.6-10.7L94.1,72.6"/>
	</g>
</g>
</svg>
