<?xml version="1.0" encoding="utf-8"?>
<!-- Generator: Adobe Illustrator 19.2.1, SVG Export Plug-In . SVG Version: 6.00 Build 0)  -->
<svg version="1.1" id="Layer_1" xmlns="http://www.w3.org/2000/svg" xmlns:xlink="http://www.w3.org/1999/xlink" x="0px" y="0px"
	 viewBox="0 0 32 32" style="enable-background:new 0 0 32 32;" xml:space="preserve">
<style type="text/css">
	.st0{fill:none;stroke:#F16261;stroke-linecap:round;stroke-linejoin:round;stroke-miterlimit:10;}
</style>
<g>
	<path class="st0" d="M21.3,1.9L6,6.2v19.7c0,0,0.4,3.9,5.3,4.2l14.7-4v-20C26,6.1,21,5.7,21.3,1.9z"/>
	<path class="st0" d="M6,6.2c0,0,1.1,3.8,5.1,4.1v19.9"/>
	<line class="st0" x1="11.1" y1="10.2" x2="26" y2="6.1"/>
	<line class="st0" x1="7.6" y1="8.7" x2="22.2" y2="4.5"/>
</g>
</svg>
