<?xml version="1.0" encoding="utf-8"?>
<!-- Generator: Adobe Illustrator 19.2.1, SVG Export Plug-In . SVG Version: 6.00 Build 0)  -->
<svg version="1.1" id="Layer_1" xmlns="http://www.w3.org/2000/svg" xmlns:xlink="http://www.w3.org/1999/xlink" x="0px" y="0px"
	 viewBox="0 0 32 32" style="enable-background:new 0 0 32 32;" xml:space="preserve">
<style type="text/css">
	.st0{fill:none;stroke:#F16261;stroke-linecap:round;stroke-linejoin:round;stroke-miterlimit:10;}
</style>
<g>
	<polyline class="st0" points="4,21.2 4,5.9 27.9,5.9 27.9,21.2 	"/>
	<polygon class="st0" points="13,9.5 18.9,14.2 17,15 18.9,17.5 17.4,18.6 15.9,15.8 14,17.3 	"/>
	<polygon class="st0" points="30.5,26.1 30.5,23.2 17.5,23.2 17.5,24.4 16,24.4 14.5,24.4 14.5,23.2 1.5,23.2 1.5,26.1 	"/>
</g>
</svg>
