<?xml version="1.0" encoding="utf-8"?>
<!-- Generator: Adobe Illustrator 19.2.1, SVG Export Plug-In . SVG Version: 6.00 Build 0)  -->
<svg version="1.1" id="Layer_1" xmlns="http://www.w3.org/2000/svg" xmlns:xlink="http://www.w3.org/1999/xlink" x="0px" y="0px"
	 viewBox="0 0 12 18" style="enable-background:new 0 0 12 18;" xml:space="preserve">
<style type="text/css">
	.st0{fill:#7BCCC5;}
</style>
<g>
	<rect x="5" y="6.5" transform="matrix(-0.7071 -0.7071 0.7071 -0.7071 1.3787 25.6421)" class="st0" width="2" height="12"/>
	<rect x="5" y="-0.5" transform="matrix(-0.7071 0.7071 -0.7071 -0.7071 14.1066 5.0858)" class="st0" width="2" height="12"/>
</g>
</svg>
