<?xml version="1.0" encoding="utf-8"?>
<!-- Generator: Adobe Illustrator 18.0.0, SVG Export Plug-In . SVG Version: 6.00 Build 0)  -->
<!DOCTYPE svg PUBLIC "-//W3C//DTD SVG 1.1//EN" "http://www.w3.org/Graphics/SVG/1.1/DTD/svg11.dtd">
<svg version="1.1" id="Layer_1" xmlns="http://www.w3.org/2000/svg" xmlns:xlink="http://www.w3.org/1999/xlink" x="0px" y="0px"
	 viewBox="0 0 612 792" enable-background="new 0 0 612 792" xml:space="preserve">
<g>
	
		<rect x="260.9" y="288.7" transform="matrix(0.7071 0.7071 -0.7071 0.7071 480.1 -53.718)" fill="#FFFFFF" width="88" height="528"/>
	
		<rect x="260.9" y="-24.7" transform="matrix(0.7071 -0.7071 0.7071 0.7071 -79.9304 285.6938)" fill="#FFFFFF" width="88" height="528"/>
</g>
</svg>
