<?xml version="1.0" encoding="utf-8"?>
<!-- Generator: Adobe Illustrator 19.0.0, SVG Export Plug-In . SVG Version: 6.00 Build 0)  -->
<svg version="1.1" id="Layer_1" xmlns="http://www.w3.org/2000/svg" xmlns:xlink="http://www.w3.org/1999/xlink" x="0px" y="0px"
	 width="40px" height="40px" viewBox="0 0 40 40" style="enable-background:new 0 0 40 40;" xml:space="preserve">
<style type="text/css">
	.st0{fill:#ECC437;}
	.st1{opacity:0.8;fill:#FFFFFF;}
</style>
<g id="XMLID_19_">
	<g id="XMLID_5_">
		<circle id="XMLID_16_" class="st0" cx="20" cy="20" r="20"/>
	</g>
	<path id="XMLID_4_" class="st1" d="M30.3,18H9.7c-0.2,0-0.4,0.2-0.4,0.4V23c0,0.2,0.2,0.4,0.4,0.4h20.6c0.2,0,0.4-0.2,0.4-0.4v-4.6
		C30.7,18.2,30.5,18,30.3,18z"/>
</g>
</svg>
