<?xml version="1.0" encoding="utf-8"?>
<!-- Generator: Adobe Illustrator 19.2.1, SVG Export Plug-In . SVG Version: 6.00 Build 0)  -->
<svg version="1.1" id="Layer_1" xmlns="http://www.w3.org/2000/svg" xmlns:xlink="http://www.w3.org/1999/xlink" x="0px" y="0px"
	 viewBox="0 0 26 26" style="enable-background:new 0 0 26 26;" xml:space="preserve">
<style type="text/css">
	.st0{fill:#7BCCC5;}
	.st1{fill:none;}
</style>
<g>
	<path id="LinkedIn_2_" class="st0" d="M22.3,15.1v7h-4.1v-6.5c0-1.6-0.6-2.8-2.1-2.8c-1.1,0-1.8,0.8-2.1,1.5
		c-0.1,0.3-0.1,0.6-0.1,1v6.8H9.9c0,0,0.1-11.1,0-12.2h4.1v1.7c0,0,0,0,0,0h0v0c0.5-0.8,1.5-2,3.7-2C20.3,9.5,22.3,11.3,22.3,15.1z
		 M5.6,3.9C4.2,3.9,3.3,4.8,3.3,6c0,1.2,0.9,2.1,2.2,2.1h0C7,8.2,7.9,7.2,7.9,6C7.9,4.8,7,3.9,5.6,3.9z M3.6,22.1h4.1V9.8H3.6V22.1z
		"/>
</g>
<rect y="11.9" class="st1" width="26" height="2.1"/>
</svg>
