<?xml version="1.0" encoding="utf-8"?>
<!-- Generator: Adobe Illustrator 19.2.1, SVG Export Plug-In . SVG Version: 6.00 Build 0)  -->
<svg version="1.1" id="Layer_1" xmlns="http://www.w3.org/2000/svg" xmlns:xlink="http://www.w3.org/1999/xlink" x="0px" y="0px"
	 viewBox="0 0 102 102" style="enable-background:new 0 0 102 102;" xml:space="preserve">
<style type="text/css">
	.st0{fill:#F16261;}
	.st1{fill:none;stroke:#FFFFFF;stroke-width:1.75;stroke-linecap:round;stroke-linejoin:round;stroke-miterlimit:10;}
</style>
<g>
	<g>
		<circle class="st0" cx="51" cy="51" r="50"/>
	</g>
	<polygon class="st1" points="29.7,27.8 72.1,27.8 72.1,35.5 50,87 36.7,87 58.6,38.5 29.7,38.5 	"/>
	<path class="st1" d="M41.9,75.6C31.2,71.5,23.5,60.2,23.5,47c0-16.7,12.3-30.3,27.5-30.3S78.5,30.3,78.5,47
		c0,15.5-10.6,28.3-24.2,30.1"/>
</g>
</svg>
