<?xml version="1.0" encoding="utf-8"?>
<!-- Generator: Adobe Illustrator 19.2.1, SVG Export Plug-In . SVG Version: 6.00 Build 0)  -->
<svg version="1.1" id="Layer_1" xmlns="http://www.w3.org/2000/svg" xmlns:xlink="http://www.w3.org/1999/xlink" x="0px" y="0px"
	 viewBox="0 0 102 102" style="enable-background:new 0 0 102 102;" xml:space="preserve">
<style type="text/css">
	.st0{fill:#F16261;}
	.st1{fill:none;stroke:#FFFFFF;stroke-width:1.8;stroke-linecap:round;stroke-linejoin:round;stroke-miterlimit:10;}
</style>
<g>
	<circle class="st0" cx="51" cy="51" r="50"/>
	<rect x="34.3" y="50" class="st1" width="38.6" height="22.9"/>
	
		<rect x="29.4" y="31.6" transform="matrix(0.8751 -0.4839 0.4839 0.8751 -11.5616 28.1311)" class="st1" width="38.6" height="9.8"/>
	<line class="st1" x1="31.9" y1="45.9" x2="65.7" y2="27.2"/>
	<line class="st1" x1="34.3" y1="57" x2="72.8" y2="57"/>
	<line class="st1" x1="34.3" y1="57" x2="41.2" y2="50.1"/>
	<line class="st1" x1="41.3" y1="57" x2="48.2" y2="50.1"/>
	<line class="st1" x1="48.3" y1="57" x2="55.2" y2="50.1"/>
	<line class="st1" x1="55.3" y1="57" x2="62.2" y2="50.1"/>
	<line class="st1" x1="62.3" y1="57" x2="69.2" y2="50.1"/>
	<line class="st1" x1="69.3" y1="57" x2="72.8" y2="53.5"/>
</g>
</svg>
