<?xml version="1.0" encoding="utf-8"?>
<!-- Generator: Adobe Illustrator 19.2.1, SVG Export Plug-In . SVG Version: 6.00 Build 0)  -->
<svg version="1.1" id="Layer_1" xmlns="http://www.w3.org/2000/svg" xmlns:xlink="http://www.w3.org/1999/xlink" x="0px" y="0px"
	 viewBox="0 0 102 102" style="enable-background:new 0 0 102 102;" xml:space="preserve">
<style type="text/css">
	.st0{fill:#7BCCC5;}
	.st1{fill:none;stroke:#FFFFFF;stroke-width:1.8;stroke-linecap:round;stroke-linejoin:round;stroke-miterlimit:10;}
</style>
<g>
	<circle class="st0" cx="51" cy="51" r="50"/>
	<polyline class="st1" points="51,33 48.9,37.9 42.9,37.9 47.2,42.1 46,47.7 51,45 	"/>
	<path class="st1" d="M50.4,60c-14.7,0-15.3-15.2-15.3-15.2V24.7h31.2v20.2c0,0-0.6,15.2-15.3,15.2h-0.6V60z"/>
	<polyline class="st1" points="51,33 53.1,37.9 59.1,37.9 54.9,42.1 56.1,47.7 51,45 	"/>
	<path class="st1" d="M66.3,33.2c0,0,7.7-2.9,7.7,6.2s-8.6,10.1-8.6,10.1"/>
	<path class="st1" d="M35,33.2c0,0-7.7-2.9-7.7,6.2S36,49.6,36,49.6"/>
	<line class="st1" x1="48.7" y1="63.3" x2="48.7" y2="71.9"/>
	<line class="st1" x1="52.7" y1="63.3" x2="52.7" y2="71.9"/>
	<polygon class="st1" points="57.7,71.9 59,76.8 50.7,76.8 42.4,76.8 43.8,71.9 50.7,71.9 	"/>
</g>
</svg>
