<?xml version="1.0" encoding="utf-8"?>
<!-- Generator: Adobe Illustrator 19.2.1, SVG Export Plug-In . SVG Version: 6.00 Build 0)  -->
<svg version="1.1" id="Layer_1" xmlns="http://www.w3.org/2000/svg" xmlns:xlink="http://www.w3.org/1999/xlink" x="0px" y="0px"
	 viewBox="0 0 102 102" style="enable-background:new 0 0 102 102;" xml:space="preserve">
<style type="text/css">
	.st0{fill:#7BCCC5;}
	.st1{fill:none;stroke:#FFFFFF;stroke-width:1.8;stroke-linecap:round;stroke-linejoin:round;stroke-miterlimit:10;}
</style>
<g>
	<circle class="st0" cx="51" cy="51" r="50"/>
	<rect x="25" y="25.2" class="st1" width="51.3" height="26.8"/>
	<path class="st1" d="M28.2,64.1c0-2.8,2.3-5.1,5.1-5.1s5.1,2.3,5.1,5.1"/>
	<path class="st1" d="M46.1,64.1c0-2.8,2.3-5.1,5.1-5.1s5.1,2.3,5.1,5.1"/>
	<path class="st1" d="M63.9,64.1c0-2.8,2.3-5.1,5.1-5.1c2.8,0,5.1,2.3,5.1,5.1"/>
	<path class="st1" d="M37.2,70.5c0-2.8,2.3-5.1,5.1-5.1s5.1,2.3,5.1,5.1"/>
	<path class="st1" d="M55,70.5c0-2.8,2.3-5.1,5.1-5.1s5.1,2.3,5.1,5.1"/>
	<path class="st1" d="M28.2,77.5c0-2.8,2.3-5.1,5.1-5.1s5.1,2.3,5.1,5.1"/>
	<path class="st1" d="M46.1,77.5c0-2.8,2.3-5.1,5.1-5.1s5.1,2.3,5.1,5.1"/>
	<path class="st1" d="M63.9,77.5c0-2.8,2.3-5.1,5.1-5.1c2.8,0,5.1,2.3,5.1,5.1"/>
	<path class="st1" d="M72.9,70.5c0-2.8,2.3-5.1,5.1-5.1"/>
	<path class="st1" d="M24,65.4c2.8,0,5.1,2.3,5.1,5.1"/>
</g>
</svg>
