<?xml version="1.0" encoding="utf-8"?>
<!-- Generator: Adobe Illustrator 19.2.1, SVG Export Plug-In . SVG Version: 6.00 Build 0)  -->
<svg version="1.1" id="Layer_1" xmlns="http://www.w3.org/2000/svg" xmlns:xlink="http://www.w3.org/1999/xlink" x="0px" y="0px"
	 viewBox="0 0 32 32" style="enable-background:new 0 0 32 32;" xml:space="preserve">
<style type="text/css">
	.st0{fill:none;stroke:#F16261;stroke-linecap:round;stroke-linejoin:round;stroke-miterlimit:10;}
</style>
<g>
	<g>
		<rect x="2.5" y="2.5" class="st0" width="27" height="27"/>
		<line class="st0" x1="11.6" y1="24.7" x2="27.2" y2="24.7"/>
		<line class="st0" x1="4.8" y1="24.7" x2="7.7" y2="24.7"/>
		<circle class="st0" cx="9.6" cy="24.7" r="1.9"/>
		<polygon class="st0" points="11.9,7.3 11.9,18 21,12.7 		"/>
	</g>
</g>
</svg>
